{
  "domain": "comperia.pl",
  "endpoint": "get_backlinks_tlds",
  "data": {
    "ok": true,
    "data": {
      "success": true,
      "data": [
        {
          "tld": "pl",
          "count": 355566,
          "percent": 0.9993198579008904
        },
        {
          "tld": "com",
          "count": 84,
          "percent": 0.00023608238150912852
        },
        {
          "tld": "net",
          "count": 44,
          "percent": 0.00012366219983811494
        },
        {
          "tld": "one",
          "count": 35,
          "percent": 9.836765896213688e-05
        },
        {
          "tld": "wiki",
          "count": 27,
          "percent": 7.588362262793416e-05
        },
        {
          "tld": "org",
          "count": 20,
          "percent": 5.621009083550679e-05
        },
        {
          "tld": "eu",
          "count": 9,
          "percent": 2.5294540875978055e-05
        },
        {
          "tld": "biz",
          "count": 7,
          "percent": 1.9673531792427378e-05
        },
        {
          "tld": "us",
          "count": 3,
          "percent": 8.431513625326018e-06
        },
        {
          "tld": "ly",
          "count": 3,
          "percent": 8.431513625326018e-06
        }
      ],
      "pagination": {
        "page_count": 2,
        "current_page": 1,
        "has_next_page": true,
        "has_prev_page": false,
        "count": 16,
        "limit": 10
      }
    },
    "status": 200,
    "domain": "comperia.pl",
    "endpoint": "get_backlinks_tlds"
  }
}