{
  "domain": "poradnikprzedsiebiorcy.pl",
  "endpoint": "get_backlinks_tlds",
  "data": {
    "ok": true,
    "data": {
      "success": true,
      "data": [
        {
          "tld": "pl",
          "count": 121761,
          "percent": 0.9818485307873431
        },
        {
          "tld": "online",
          "count": 846,
          "percent": 0.00682192045931039
        },
        {
          "tld": "info",
          "count": 524,
          "percent": 0.004225397542173338
        },
        {
          "tld": "com",
          "count": 520,
          "percent": 0.0041931425991033125
        },
        {
          "tld": "org",
          "count": 78,
          "percent": 0.0006289713898654969
        },
        {
          "tld": "eu",
          "count": 69,
          "percent": 0.0005563977679579396
        },
        {
          "tld": "wiki",
          "count": 67,
          "percent": 0.0005402702964229268
        },
        {
          "tld": "net",
          "count": 41,
          "percent": 0.0003306131664677612
        },
        {
          "tld": "by",
          "count": 15,
          "percent": 0.00012095603651259556
        },
        {
          "tld": "biz",
          "count": 14,
          "percent": 0.00011289230074508918
        }
      ],
      "pagination": {
        "page_count": 4,
        "current_page": 1,
        "has_next_page": true,
        "has_prev_page": false,
        "count": 40,
        "limit": 10
      }
    },
    "status": 200,
    "domain": "poradnikprzedsiebiorcy.pl",
    "endpoint": "get_backlinks_tlds"
  }
}